2023-03-07 14:52:01.022 +05:30 [INF] Request starting HTTP/2 GET https://localhost:7097/api/CartItem - -
2023-03-07 14:52:01.040 +05:30 [INF] CORS policy execution successful.
2023-03-07 14:52:01.042 +05:30 [INF] Executing endpoint 'WebApplication1.Controllers.CartItemController.cart (WebApplication1)'
2023-03-07 14:52:01.042 +05:30 [INF] Route matched with {action = "cart", controller = "CartItem"}. Executing controller action with signature Microsoft.AspNetCore.Http.IResult cart(WebApplication1.EntityModel.CartItemEntity) on controller WebApplication1.Controllers.CartItemController (WebApplication1).
2023-03-07 14:52:01.044 +05:30 [INF] Executing ObjectResult, writing value of type 'Microsoft.AspNetCore.Mvc.ProblemDetails'.
2023-03-07 14:52:01.046 +05:30 [INF] Executed action WebApplication1.Controllers.CartItemController.cart (WebApplication1) in 3.8371ms
2023-03-07 14:52:01.046 +05:30 [INF] Executed endpoint 'WebApplication1.Controllers.CartItemController.cart (WebApplication1)'
2023-03-07 14:52:01.046 +05:30 [INF] Request finished HTTP/2 GET https://localhost:7097/api/CartItem - - - 415 - application/json;+charset=utf-8 24.2098ms
2023-03-07 14:52:01.051 +05:30 [INF] Request starting HTTP/2 GET https://localhost:7097/api/CartItem - -
2023-03-07 14:52:01.052 +05:30 [INF] CORS policy execution successful.
2023-03-07 14:52:01.052 +05:30 [INF] Executing endpoint 'WebApplication1.Controllers.CartItemController.cart (WebApplication1)'
2023-03-07 14:52:01.052 +05:30 [INF] Route matched with {action = "cart", controller = "CartItem"}. Executing controller action with signature Microsoft.AspNetCore.Http.IResult cart(WebApplication1.EntityModel.CartItemEntity) on controller WebApplication1.Controllers.CartItemController (WebApplication1).
2023-03-07 14:52:01.053 +05:30 [INF] Executing ObjectResult, writing value of type 'Microsoft.AspNetCore.Mvc.ProblemDetails'.
2023-03-07 14:52:01.053 +05:30 [INF] Executed action WebApplication1.Controllers.CartItemController.cart (WebApplication1) in 1.1625ms
2023-03-07 14:52:01.053 +05:30 [INF] Executed endpoint 'WebApplication1.Controllers.CartItemController.cart (WebApplication1)'
2023-03-07 14:52:01.053 +05:30 [INF] Request finished HTTP/2 GET https://localhost:7097/api/CartItem - - - 415 - application/json;+charset=utf-8 2.5140ms
2023-03-07 14:52:03.715 +05:30 [INF] Request starting HTTP/2 GET https://localhost:7097/api/CartItem - -
2023-03-07 14:52:03.715 +05:30 [INF] CORS policy execution successful.
2023-03-07 14:52:03.715 +05:30 [INF] Executing endpoint 'WebApplication1.Controllers.CartItemController.cart (WebApplication1)'
2023-03-07 14:52:03.715 +05:30 [INF] Route matched with {action = "cart", controller = "CartItem"}. Executing controller action with signature Microsoft.AspNetCore.Http.IResult cart(WebApplication1.EntityModel.CartItemEntity) on controller WebApplication1.Controllers.CartItemController (WebApplication1).
2023-03-07 14:52:03.716 +05:30 [INF] Executing ObjectResult, writing value of type 'Microsoft.AspNetCore.Mvc.ProblemDetails'.
2023-03-07 14:52:03.716 +05:30 [INF] Executed action WebApplication1.Controllers.CartItemController.cart (WebApplication1) in 0.826ms
2023-03-07 14:52:03.716 +05:30 [INF] Executed endpoint 'WebApplication1.Controllers.CartItemController.cart (WebApplication1)'
2023-03-07 14:52:03.716 +05:30 [INF] Request finished HTTP/2 GET https://localhost:7097/api/CartItem - - - 415 - application/json;+charset=utf-8 1.5279ms
2023-03-07 14:52:03.718 +05:30 [INF] Request starting HTTP/2 GET https://localhost:7097/api/CartItem - -
2023-03-07 14:52:03.718 +05:30 [INF] CORS policy execution successful.
2023-03-07 14:52:03.718 +05:30 [INF] Executing endpoint 'WebApplication1.Controllers.CartItemController.cart (WebApplication1)'
2023-03-07 14:52:03.718 +05:30 [INF] Route matched with {action = "cart", controller = "CartItem"}. Executing controller action with signature Microsoft.AspNetCore.Http.IResult cart(WebApplication1.EntityModel.CartItemEntity) on controller WebApplication1.Controllers.CartItemController (WebApplication1).
2023-03-07 14:52:03.719 +05:30 [INF] Executing ObjectResult, writing value of type 'Microsoft.AspNetCore.Mvc.ProblemDetails'.
2023-03-07 14:52:03.719 +05:30 [INF] Executed action WebApplication1.Controllers.CartItemController.cart (WebApplication1) in 1.0333ms
2023-03-07 14:52:03.720 +05:30 [INF] Executed endpoint 'WebApplication1.Controllers.CartItemController.cart (WebApplication1)'
2023-03-07 14:52:03.720 +05:30 [INF] Request finished HTTP/2 GET https://localhost:7097/api/CartItem - - - 415 - application/json;+charset=utf-8 1.6093ms
2023-03-07 14:52:03.730 +05:30 [INF] Request starting HTTP/2 GET https://localhost:7097/api/CartItem - -
2023-03-07 14:52:03.731 +05:30 [INF] CORS policy execution successful.
2023-03-07 14:52:03.731 +05:30 [INF] Executing endpoint 'WebApplication1.Controllers.CartItemController.cart (WebApplication1)'
2023-03-07 14:52:03.731 +05:30 [INF] Route matched with {action = "cart", controller = "CartItem"}. Executing controller action with signature Microsoft.AspNetCore.Http.IResult cart(WebApplication1.EntityModel.CartItemEntity) on controller WebApplication1.Controllers.CartItemController (WebApplication1).
2023-03-07 14:52:03.732 +05:30 [INF] Executing ObjectResult, writing value of type 'Microsoft.AspNetCore.Mvc.ProblemDetails'.
2023-03-07 14:52:03.733 +05:30 [INF] Executed action WebApplication1.Controllers.CartItemController.cart (WebApplication1) in 1.1877ms
2023-03-07 14:52:03.733 +05:30 [INF] Executed endpoint 'WebApplication1.Controllers.CartItemController.cart (WebApplication1)'
2023-03-07 14:52:03.733 +05:30 [INF] Request finished HTTP/2 GET https://localhost:7097/api/CartItem - - - 415 - application/json;+charset=utf-8 2.3334ms
2023-03-07 14:52:20.960 +05:30 [INF] Request starting HTTP/2 GET https://localhost:7097/api/CartItem - -
2023-03-07 14:52:20.960 +05:30 [INF] CORS policy execution successful.
2023-03-07 14:52:20.960 +05:30 [INF] Executing endpoint 'WebApplication1.Controllers.CartItemController.cart (WebApplication1)'
2023-03-07 14:52:20.962 +05:30 [INF] Route matched with {action = "cart", controller = "CartItem"}. Executing controller action with signature Microsoft.AspNetCore.Http.IResult cart(WebApplication1.EntityModel.CartItemEntity) on controller WebApplication1.Controllers.CartItemController (WebApplication1).
2023-03-07 14:52:20.963 +05:30 [INF] Executing ObjectResult, writing value of type 'Microsoft.AspNetCore.Mvc.ProblemDetails'.
2023-03-07 14:52:20.963 +05:30 [INF] Executed action WebApplication1.Controllers.CartItemController.cart (WebApplication1) in 1.3579ms
2023-03-07 14:52:20.963 +05:30 [INF] Executed endpoint 'WebApplication1.Controllers.CartItemController.cart (WebApplication1)'
2023-03-07 14:52:20.964 +05:30 [INF] Request finished HTTP/2 GET https://localhost:7097/api/CartItem - - - 415 - application/json;+charset=utf-8 3.6411ms
2023-03-07 14:52:20.978 +05:30 [INF] Request starting HTTP/2 GET https://localhost:7097/api/CartItem - -
2023-03-07 14:52:20.978 +05:30 [INF] CORS policy execution successful.
2023-03-07 14:52:20.978 +05:30 [INF] Executing endpoint 'WebApplication1.Controllers.CartItemController.cart (WebApplication1)'
2023-03-07 14:52:20.978 +05:30 [INF] Route matched with {action = "cart", controller = "CartItem"}. Executing controller action with signature Microsoft.AspNetCore.Http.IResult cart(WebApplication1.EntityModel.CartItemEntity) on controller WebApplication1.Controllers.CartItemController (WebApplication1).
2023-03-07 14:52:20.980 +05:30 [INF] Executing ObjectResult, writing value of type 'Microsoft.AspNetCore.Mvc.ProblemDetails'.
2023-03-07 14:52:20.980 +05:30 [INF] Executed action WebApplication1.Controllers.CartItemController.cart (WebApplication1) in 1.5547ms
2023-03-07 14:52:20.980 +05:30 [INF] Executed endpoint 'WebApplication1.Controllers.CartItemController.cart (WebApplication1)'
2023-03-07 14:52:20.980 +05:30 [INF] Request finished HTTP/2 GET https://localhost:7097/api/CartItem - - - 415 - application/json;+charset=utf-8 3.0618ms
2023-03-07 14:52:20.994 +05:30 [INF] Request starting HTTP/2 GET https://localhost:7097/api/CartItem - -
2023-03-07 14:52:21.004 +05:30 [INF] CORS policy execution successful.
2023-03-07 14:52:21.007 +05:30 [INF] Executing endpoint 'WebApplication1.Controllers.CartItemController.cart (WebApplication1)'
2023-03-07 14:52:21.007 +05:30 [INF] Route matched with {action = "cart", controller = "CartItem"}. Executing controller action with signature Microsoft.AspNetCore.Http.IResult cart(WebApplication1.EntityModel.CartItemEntity) on controller WebApplication1.Controllers.CartItemController (WebApplication1).
2023-03-07 14:52:21.010 +05:30 [INF] Executing ObjectResult, writing value of type 'Microsoft.AspNetCore.Mvc.ProblemDetails'.
2023-03-07 14:52:21.011 +05:30 [INF] Executed action WebApplication1.Controllers.CartItemController.cart (WebApplication1) in 3.3328ms
2023-03-07 14:52:21.011 +05:30 [INF] Executed endpoint 'WebApplication1.Controllers.CartItemController.cart (WebApplication1)'
2023-03-07 14:52:21.011 +05:30 [INF] Request finished HTTP/2 GET https://localhost:7097/api/CartItem - - - 415 - application/json;+charset=utf-8 18.1799ms
2023-03-07 14:52:23.993 +05:30 [INF] Request starting HTTP/2 GET https://localhost:7097/api/CartItem - -
2023-03-07 14:52:23.993 +05:30 [INF] Request starting HTTP/2 GET https://localhost:7097/Api/Product - -
2023-03-07 14:52:23.994 +05:30 [INF] CORS policy execution successful.
2023-03-07 14:52:23.994 +05:30 [INF] CORS policy execution successful.
2023-03-07 14:52:23.994 +05:30 [INF] Executing endpoint 'WebApplication1.Controllers.ProductController.GetAll (WebApplication1)'
2023-03-07 14:52:23.994 +05:30 [INF] Executing endpoint 'WebApplication1.Controllers.CartItemController.cart (WebApplication1)'
2023-03-07 14:52:23.994 +05:30 [INF] Route matched with {action = "GetAll", controller = "Product"}. Executing controller action with signature System.Collections.Generic.IEnumerable`1[WebApplication1.EntityModel.ProductEntity] GetAll() on controller WebApplication1.Controllers.ProductController (WebApplication1).
2023-03-07 14:52:23.994 +05:30 [INF] Route matched with {action = "cart", controller = "CartItem"}. Executing controller action with signature Microsoft.AspNetCore.Http.IResult cart(WebApplication1.EntityModel.CartItemEntity) on controller WebApplication1.Controllers.CartItemController (WebApplication1).
2023-03-07 14:52:23.995 +05:30 [INF] Executing ObjectResult, writing value of type 'Microsoft.AspNetCore.Mvc.ProblemDetails'.
2023-03-07 14:52:23.995 +05:30 [INF] Executed action WebApplication1.Controllers.CartItemController.cart (WebApplication1) in 1.0223ms
2023-03-07 14:52:23.995 +05:30 [INF] Executed endpoint 'WebApplication1.Controllers.CartItemController.cart (WebApplication1)'
2023-03-07 14:52:23.995 +05:30 [INF] Request finished HTTP/2 GET https://localhost:7097/api/CartItem - - - 415 - application/json;+charset=utf-8 2.2068ms
2023-03-07 14:52:24.020 +05:30 [INF] Executed DbCommand (25ms) [Parameters=[], CommandType='"Text"', CommandTimeout='30']
SELECT [p].[Id], [p].[Category], [p].[Image], [p].[Name], [p].[Price], [p].[Quantity]
FROM [Products] AS [p]
2023-03-07 14:52:24.021 +05:30 [INF] Executing ObjectResult, writing value of type 'System.Collections.Generic.List`1[[WebApplication1.EntityModel.ProductEntity, WebApplication1, Version=1.0.0.0, Culture=neutral, PublicKeyToken=null]]'.
2023-03-07 14:52:24.021 +05:30 [INF] Executed action WebApplication1.Controllers.ProductController.GetAll (WebApplication1) in 27.0636ms
2023-03-07 14:52:24.021 +05:30 [INF] Executed endpoint 'WebApplication1.Controllers.ProductController.GetAll (WebApplication1)'
2023-03-07 14:52:24.021 +05:30 [INF] Request finished HTTP/2 GET https://localhost:7097/Api/Product - - - 200 - application/json;+charset=utf-8 27.8233ms
2023-03-07 14:52:24.488 +05:30 [INF] Request starting HTTP/2 GET https://localhost:7097/api/CartItem - -
2023-03-07 14:52:24.488 +05:30 [INF] CORS policy execution successful.
2023-03-07 14:52:24.488 +05:30 [INF] Executing endpoint 'WebApplication1.Controllers.CartItemController.cart (WebApplication1)'
2023-03-07 14:52:24.488 +05:30 [INF] Route matched with {action = "cart", controller = "CartItem"}. Executing controller action with signature Microsoft.AspNetCore.Http.IResult cart(WebApplication1.EntityModel.CartItemEntity) on controller WebApplication1.Controllers.CartItemController (WebApplication1).
2023-03-07 14:52:24.489 +05:30 [INF] Request starting HTTP/2 GET https://localhost:7097/Api/Product - -
2023-03-07 14:52:24.489 +05:30 [INF] Executing ObjectResult, writing value of type 'Microsoft.AspNetCore.Mvc.ProblemDetails'.
2023-03-07 14:52:24.490 +05:30 [INF] CORS policy execution successful.
2023-03-07 14:52:24.490 +05:30 [INF] Executing endpoint 'WebApplication1.Controllers.ProductController.GetAll (WebApplication1)'
2023-03-07 14:52:24.490 +05:30 [INF] Executed action WebApplication1.Controllers.CartItemController.cart (WebApplication1) in 1.3436ms
2023-03-07 14:52:24.490 +05:30 [INF] Executed endpoint 'WebApplication1.Controllers.CartItemController.cart (WebApplication1)'
2023-03-07 14:52:24.490 +05:30 [INF] Route matched with {action = "GetAll", controller = "Product"}. Executing controller action with signature System.Collections.Generic.IEnumerable`1[WebApplication1.EntityModel.ProductEntity] GetAll() on controller WebApplication1.Controllers.ProductController (WebApplication1).
2023-03-07 14:52:24.490 +05:30 [INF] Request finished HTTP/2 GET https://localhost:7097/api/CartItem - - - 415 - application/json;+charset=utf-8 2.3397ms
2023-03-07 14:52:24.512 +05:30 [INF] Executed DbCommand (20ms) [Parameters=[], CommandType='"Text"', CommandTimeout='30']
SELECT [p].[Id], [p].[Category], [p].[Image], [p].[Name], [p].[Price], [p].[Quantity]
FROM [Products] AS [p]
2023-03-07 14:52:24.512 +05:30 [INF] Executing ObjectResult, writing value of type 'System.Collections.Generic.List`1[[WebApplication1.EntityModel.ProductEntity, WebApplication1, Version=1.0.0.0, Culture=neutral, PublicKeyToken=null]]'.
2023-03-07 14:52:24.513 +05:30 [INF] Executed action WebApplication1.Controllers.ProductController.GetAll (WebApplication1) in 22.6451ms
2023-03-07 14:52:24.513 +05:30 [INF] Executed endpoint 'WebApplication1.Controllers.ProductController.GetAll (WebApplication1)'
2023-03-07 14:52:24.513 +05:30 [INF] Request finished HTTP/2 GET https://localhost:7097/Api/Product - - - 200 - application/json;+charset=utf-8 23.8017ms
2023-03-07 14:52:27.386 +05:30 [INF] Request starting HTTP/2 OPTIONS https://localhost:7097/api/CartItem - -
2023-03-07 14:52:27.387 +05:30 [INF] CORS policy execution successful.
2023-03-07 14:52:27.387 +05:30 [INF] Request finished HTTP/2 OPTIONS https://localhost:7097/api/CartItem - - - 204 - - 0.6665ms
2023-03-07 14:52:27.388 +05:30 [INF] Request starting HTTP/2 POST https://localhost:7097/api/CartItem application/json 89
2023-03-07 14:52:27.389 +05:30 [INF] CORS policy execution successful.
2023-03-07 14:52:27.389 +05:30 [INF] Executing endpoint 'WebApplication1.Controllers.CartItemController.cart (WebApplication1)'
2023-03-07 14:52:27.389 +05:30 [INF] Route matched with {action = "cart", controller = "CartItem"}. Executing controller action with signature Microsoft.AspNetCore.Http.IResult cart(WebApplication1.EntityModel.CartItemEntity) on controller WebApplication1.Controllers.CartItemController (WebApplication1).
2023-03-07 14:52:27.402 +05:30 [INF] Executed DbCommand (11ms) [Parameters=[@__id_0='?' (DbType = Int32)], CommandType='"Text"', CommandTimeout='30']
SELECT TOP(1) [c].[Id], [c].[Image], [c].[Price], [c].[ProductId], [c].[ProductName], [c].[Quantity], [c].[Total]
FROM [CartItem] AS [c]
WHERE [c].[ProductId] = @__id_0
2023-03-07 14:52:27.403 +05:30 [INF] Executed DbCommand (0ms) [Parameters=[@__id_0='?' (DbType = Int32)], CommandType='"Text"', CommandTimeout='30']
SELECT TOP(1) [c].[Id], [c].[Image], [c].[Price], [c].[ProductId], [c].[ProductName], [c].[Quantity], [c].[Total]
FROM [CartItem] AS [c]
WHERE [c].[ProductId] = @__id_0
2023-03-07 14:52:27.406 +05:30 [INF] Executed DbCommand (3ms) [Parameters=[@__cartItem_ProductId_0='?' (DbType = Int32)], CommandType='"Text"', CommandTimeout='30']
SELECT TOP(1) [p].[Id], [p].[Category], [p].[Image], [p].[Name], [p].[Price], [p].[Quantity]
FROM [Products] AS [p]
WHERE [p].[Id] = @__cartItem_ProductId_0
2023-03-07 14:52:27.411 +05:30 [INF] Executed DbCommand (5ms) [Parameters=[@p6='?' (DbType = Int32), @p0='?' (Size = 4000), @p1='?' (DbType = Int32), @p2='?' (DbType = Int32), @p3='?' (Size = 4000), @p4='?' (DbType = Int32), @p5='?' (DbType = Int32)], CommandType='"Text"', CommandTimeout='30']
SET IMPLICIT_TRANSACTIONS OFF;
SET NOCOUNT ON;
UPDATE [CartItem] SET [Image] = @p0, [Price] = @p1, [ProductId] = @p2, [ProductName] = @p3, [Quantity] = @p4, [Total] = @p5
OUTPUT 1
WHERE [Id] = @p6;
2023-03-07 14:52:27.412 +05:30 [INF] Executing ObjectResult, writing value of type 'Microsoft.AspNetCore.Http.Result.OkObjectResult'.
2023-03-07 14:52:27.412 +05:30 [INF] Executed action WebApplication1.Controllers.CartItemController.cart (WebApplication1) in 22.8625ms
2023-03-07 14:52:27.412 +05:30 [INF] Executed endpoint 'WebApplication1.Controllers.CartItemController.cart (WebApplication1)'
2023-03-07 14:52:27.412 +05:30 [INF] Request finished HTTP/2 POST https://localhost:7097/api/CartItem application/json 89 - 200 - application/json;+charset=utf-8 24.0625ms
2023-03-07 14:52:27.501 +05:30 [INF] Request starting HTTP/2 GET https://localhost:7097/api/CartItem - -
2023-03-07 14:52:27.501 +05:30 [INF] CORS policy execution successful.
2023-03-07 14:52:27.501 +05:30 [INF] Executing endpoint 'WebApplication1.Controllers.CartItemController.cart (WebApplication1)'
2023-03-07 14:52:27.501 +05:30 [INF] Route matched with {action = "cart", controller = "CartItem"}. Executing controller action with signature Microsoft.AspNetCore.Http.IResult cart(WebApplication1.EntityModel.CartItemEntity) on controller WebApplication1.Controllers.CartItemController (WebApplication1).
2023-03-07 14:52:27.502 +05:30 [INF] Executing ObjectResult, writing value of type 'Microsoft.AspNetCore.Mvc.ProblemDetails'.
2023-03-07 14:52:27.503 +05:30 [INF] Executed action WebApplication1.Controllers.CartItemController.cart (WebApplication1) in 1.4729ms
2023-03-07 14:52:27.503 +05:30 [INF] Executed endpoint 'WebApplication1.Controllers.CartItemController.cart (WebApplication1)'
2023-03-07 14:52:27.503 +05:30 [INF] Request finished HTTP/2 GET https://localhost:7097/api/CartItem - - - 415 - application/json;+charset=utf-8 2.4819ms
2023-03-07 14:52:29.068 +05:30 [INF] Request starting HTTP/2 GET https://localhost:7097/api/CartItem - -
2023-03-07 14:52:29.068 +05:30 [INF] CORS policy execution successful.
2023-03-07 14:52:29.068 +05:30 [INF] Executing endpoint 'WebApplication1.Controllers.CartItemController.cart (WebApplication1)'
2023-03-07 14:52:29.068 +05:30 [INF] Route matched with {action = "cart", controller = "CartItem"}. Executing controller action with signature Microsoft.AspNetCore.Http.IResult cart(WebApplication1.EntityModel.CartItemEntity) on controller WebApplication1.Controllers.CartItemController (WebApplication1).
2023-03-07 14:52:29.069 +05:30 [INF] Executing ObjectResult, writing value of type 'Microsoft.AspNetCore.Mvc.ProblemDetails'.
2023-03-07 14:52:29.070 +05:30 [INF] Executed action WebApplication1.Controllers.CartItemController.cart (WebApplication1) in 1.2928ms
2023-03-07 14:52:29.070 +05:30 [INF] Executed endpoint 'WebApplication1.Controllers.CartItemController.cart (WebApplication1)'
2023-03-07 14:52:29.070 +05:30 [INF] Request finished HTTP/2 GET https://localhost:7097/api/CartItem - - - 415 - application/json;+charset=utf-8 2.0265ms
2023-03-07 14:52:29.072 +05:30 [INF] Request starting HTTP/2 GET https://localhost:7097/api/CartItem - -
2023-03-07 14:52:29.073 +05:30 [INF] CORS policy execution successful.
2023-03-07 14:52:29.073 +05:30 [INF] Executing endpoint 'WebApplication1.Controllers.CartItemController.cart (WebApplication1)'
2023-03-07 14:52:29.073 +05:30 [INF] Route matched with {action = "cart", controller = "CartItem"}. Executing controller action with signature Microsoft.AspNetCore.Http.IResult cart(WebApplication1.EntityModel.CartItemEntity) on controller WebApplication1.Controllers.CartItemController (WebApplication1).
2023-03-07 14:52:29.077 +05:30 [INF] Executing ObjectResult, writing value of type 'Microsoft.AspNetCore.Mvc.ProblemDetails'.
2023-03-07 14:52:29.078 +05:30 [INF] Executed action WebApplication1.Controllers.CartItemController.cart (WebApplication1) in 4.3271ms
2023-03-07 14:52:29.078 +05:30 [INF] Executed endpoint 'WebApplication1.Controllers.CartItemController.cart (WebApplication1)'
2023-03-07 14:52:29.078 +05:30 [INF] Request finished HTTP/2 GET https://localhost:7097/api/CartItem - - - 415 - application/json;+charset=utf-8 6.4020ms
