2023-03-07 14:39:13.552 +05:30 [INF] User profile is available. Using 'C:\Users\Kamal\AppData\Local\ASP.NET\DataProtection-Keys' as key repository and Windows DPAPI to encrypt keys at rest.
2023-03-07 14:39:13.956 +05:30 [INF] Now listening on: https://localhost:7097
2023-03-07 14:39:13.956 +05:30 [INF] Now listening on: http://localhost:5097
2023-03-07 14:39:13.960 +05:30 [INF] Application started. Press Ctrl+C to shut down.
2023-03-07 14:39:13.961 +05:30 [INF] Hosting environment: Development
2023-03-07 14:39:13.961 +05:30 [INF] Content root path: D:\udemy\Authetication\Movie-Ticket\WebApplication1\
2023-03-07 14:39:14.914 +05:30 [INF] Request starting HTTP/2 GET https://localhost:7097/swagger/index.html - -
2023-03-07 14:39:15.406 +05:30 [INF] Request starting HTTP/2 GET https://localhost:7097/_vs/browserLink - -
2023-03-07 14:39:15.406 +05:30 [INF] Request starting HTTP/2 GET https://localhost:7097/_framework/aspnetcore-browser-refresh.js - -
2023-03-07 14:39:15.416 +05:30 [INF] Request finished HTTP/2 GET https://localhost:7097/_framework/aspnetcore-browser-refresh.js - - - 200 12000 application/javascript;+charset=utf-8 8.8800ms
2023-03-07 14:39:15.418 +05:30 [INF] Request finished HTTP/2 GET https://localhost:7097/swagger/index.html - - - 200 - text/html;charset=utf-8 508.6085ms
2023-03-07 14:39:15.449 +05:30 [INF] Request finished HTTP/2 GET https://localhost:7097/_vs/browserLink - - - 200 - text/javascript;+charset=UTF-8 43.1481ms
2023-03-07 14:39:15.520 +05:30 [INF] Request starting HTTP/2 GET https://localhost:7097/swagger/v1/swagger.json - -
2023-03-07 14:39:15.708 +05:30 [INF] Request finished HTTP/2 GET https://localhost:7097/swagger/v1/swagger.json - - - 200 - application/json;charset=utf-8 187.3852ms
2023-03-07 14:39:46.092 +05:30 [INF] Request starting HTTP/2 GET https://localhost:7097/Api/Product - -
2023-03-07 14:39:46.103 +05:30 [INF] CORS policy execution successful.
2023-03-07 14:39:46.245 +05:30 [INF] Executing endpoint 'WebApplication1.Controllers.ProductController.GetAll (WebApplication1)'
2023-03-07 14:39:46.290 +05:30 [INF] Route matched with {action = "GetAll", controller = "Product"}. Executing controller action with signature System.Collections.Generic.IEnumerable`1[WebApplication1.EntityModel.ProductEntity] GetAll() on controller WebApplication1.Controllers.ProductController (WebApplication1).
2023-03-07 14:39:47.322 +05:30 [INF] Request starting HTTP/2 GET https://localhost:7097/api/CartItem - -
2023-03-07 14:39:47.329 +05:30 [INF] Request starting HTTP/2 GET https://localhost:7097/Api/Product - -
2023-03-07 14:39:47.330 +05:30 [INF] CORS policy execution successful.
2023-03-07 14:39:47.330 +05:30 [INF] CORS policy execution successful.
2023-03-07 14:39:47.331 +05:30 [INF] Executing endpoint 'WebApplication1.Controllers.ProductController.GetAll (WebApplication1)'
2023-03-07 14:39:47.331 +05:30 [INF] Executing endpoint 'WebApplication1.Controllers.CartItemController.cart (WebApplication1)'
2023-03-07 14:39:47.331 +05:30 [INF] Route matched with {action = "GetAll", controller = "Product"}. Executing controller action with signature System.Collections.Generic.IEnumerable`1[WebApplication1.EntityModel.ProductEntity] GetAll() on controller WebApplication1.Controllers.ProductController (WebApplication1).
2023-03-07 14:39:47.365 +05:30 [INF] Route matched with {action = "cart", controller = "CartItem"}. Executing controller action with signature Microsoft.AspNetCore.Http.IResult cart(WebApplication1.EntityModel.CartItemEntity) on controller WebApplication1.Controllers.CartItemController (WebApplication1).
2023-03-07 14:39:47.593 +05:30 [WRN] No store type was specified for the decimal property 'Price' on entity type 'Product'. This will cause values to be silently truncated if they do not fit in the default precision and scale. Explicitly specify the SQL server column type that can accommodate all the values in 'OnModelCreating' using 'HasColumnType', specify precision and scale using 'HasPrecision', or configure a value converter using 'HasConversion'.
2023-03-07 14:39:47.907 +05:30 [INF] Request starting HTTP/2 GET https://localhost:7097/api/CartItem - -
2023-03-07 14:39:47.907 +05:30 [INF] Request starting HTTP/2 GET https://localhost:7097/Api/Product - -
2023-03-07 14:39:47.908 +05:30 [INF] CORS policy execution successful.
2023-03-07 14:39:47.908 +05:30 [INF] CORS policy execution successful.
2023-03-07 14:39:47.909 +05:30 [INF] Executing endpoint 'WebApplication1.Controllers.ProductController.GetAll (WebApplication1)'
2023-03-07 14:39:47.909 +05:30 [INF] Executing endpoint 'WebApplication1.Controllers.CartItemController.cart (WebApplication1)'
2023-03-07 14:39:47.909 +05:30 [INF] Route matched with {action = "cart", controller = "CartItem"}. Executing controller action with signature Microsoft.AspNetCore.Http.IResult cart(WebApplication1.EntityModel.CartItemEntity) on controller WebApplication1.Controllers.CartItemController (WebApplication1).
2023-03-07 14:39:47.909 +05:30 [INF] Route matched with {action = "GetAll", controller = "Product"}. Executing controller action with signature System.Collections.Generic.IEnumerable`1[WebApplication1.EntityModel.ProductEntity] GetAll() on controller WebApplication1.Controllers.ProductController (WebApplication1).
2023-03-07 14:39:48.045 +05:30 [INF] Request starting HTTP/2 GET https://localhost:7097/Api/Product - -
2023-03-07 14:39:48.045 +05:30 [INF] Request starting HTTP/2 GET https://localhost:7097/api/CartItem - -
2023-03-07 14:39:48.045 +05:30 [INF] CORS policy execution successful.
2023-03-07 14:39:48.045 +05:30 [INF] CORS policy execution successful.
2023-03-07 14:39:48.045 +05:30 [INF] Executing endpoint 'WebApplication1.Controllers.CartItemController.cart (WebApplication1)'
2023-03-07 14:39:48.045 +05:30 [INF] Executing endpoint 'WebApplication1.Controllers.ProductController.GetAll (WebApplication1)'
2023-03-07 14:39:48.045 +05:30 [INF] Route matched with {action = "GetAll", controller = "Product"}. Executing controller action with signature System.Collections.Generic.IEnumerable`1[WebApplication1.EntityModel.ProductEntity] GetAll() on controller WebApplication1.Controllers.ProductController (WebApplication1).
2023-03-07 14:39:48.045 +05:30 [INF] Route matched with {action = "cart", controller = "CartItem"}. Executing controller action with signature Microsoft.AspNetCore.Http.IResult cart(WebApplication1.EntityModel.CartItemEntity) on controller WebApplication1.Controllers.CartItemController (WebApplication1).
2023-03-07 14:39:48.100 +05:30 [INF] Executing ObjectResult, writing value of type 'Microsoft.AspNetCore.Mvc.ProblemDetails'.
2023-03-07 14:39:48.100 +05:30 [INF] Executing ObjectResult, writing value of type 'Microsoft.AspNetCore.Mvc.ProblemDetails'.
2023-03-07 14:39:48.100 +05:30 [INF] Executing ObjectResult, writing value of type 'Microsoft.AspNetCore.Mvc.ProblemDetails'.
2023-03-07 14:39:48.182 +05:30 [INF] Executed action WebApplication1.Controllers.CartItemController.cart (WebApplication1) in 127.4978ms
2023-03-07 14:39:48.182 +05:30 [INF] Executed action WebApplication1.Controllers.CartItemController.cart (WebApplication1) in 813.8241ms
2023-03-07 14:39:48.186 +05:30 [INF] Executed endpoint 'WebApplication1.Controllers.CartItemController.cart (WebApplication1)'
2023-03-07 14:39:48.186 +05:30 [INF] Executed endpoint 'WebApplication1.Controllers.CartItemController.cart (WebApplication1)'
2023-03-07 14:39:48.182 +05:30 [INF] Executed action WebApplication1.Controllers.CartItemController.cart (WebApplication1) in 270.006ms
2023-03-07 14:39:48.186 +05:30 [INF] Executed endpoint 'WebApplication1.Controllers.CartItemController.cart (WebApplication1)'
2023-03-07 14:39:48.206 +05:30 [INF] Request finished HTTP/2 GET https://localhost:7097/api/CartItem - - - 415 - application/json;+charset=utf-8 161.4861ms
2023-03-07 14:39:48.206 +05:30 [INF] Request finished HTTP/2 GET https://localhost:7097/api/CartItem - - - 0 - application/json;+charset=utf-8 299.4595ms
2023-03-07 14:39:48.206 +05:30 [INF] Request finished HTTP/2 GET https://localhost:7097/api/CartItem - - - 0 - application/json;+charset=utf-8 883.8895ms
2023-03-07 14:39:48.382 +05:30 [INF] Request starting HTTP/2 GET https://localhost:7097/api/CartItem - -
2023-03-07 14:39:48.382 +05:30 [INF] Request starting HTTP/2 GET https://localhost:7097/Api/Product - -
2023-03-07 14:39:48.383 +05:30 [INF] CORS policy execution successful.
2023-03-07 14:39:48.383 +05:30 [INF] CORS policy execution successful.
2023-03-07 14:39:48.383 +05:30 [INF] Executing endpoint 'WebApplication1.Controllers.CartItemController.cart (WebApplication1)'
2023-03-07 14:39:48.383 +05:30 [INF] Executing endpoint 'WebApplication1.Controllers.ProductController.GetAll (WebApplication1)'
2023-03-07 14:39:48.383 +05:30 [INF] Route matched with {action = "GetAll", controller = "Product"}. Executing controller action with signature System.Collections.Generic.IEnumerable`1[WebApplication1.EntityModel.ProductEntity] GetAll() on controller WebApplication1.Controllers.ProductController (WebApplication1).
2023-03-07 14:39:48.383 +05:30 [INF] Route matched with {action = "cart", controller = "CartItem"}. Executing controller action with signature Microsoft.AspNetCore.Http.IResult cart(WebApplication1.EntityModel.CartItemEntity) on controller WebApplication1.Controllers.CartItemController (WebApplication1).
2023-03-07 14:39:48.385 +05:30 [INF] Executing ObjectResult, writing value of type 'Microsoft.AspNetCore.Mvc.ProblemDetails'.
2023-03-07 14:39:48.386 +05:30 [INF] Executed action WebApplication1.Controllers.CartItemController.cart (WebApplication1) in 2.7842ms
2023-03-07 14:39:48.386 +05:30 [INF] Executed endpoint 'WebApplication1.Controllers.CartItemController.cart (WebApplication1)'
2023-03-07 14:39:48.386 +05:30 [INF] Request finished HTTP/2 GET https://localhost:7097/api/CartItem - - - 415 - application/json;+charset=utf-8 4.1899ms
2023-03-07 14:39:48.801 +05:30 [INF] Request starting HTTP/2 GET https://localhost:7097/Api/Product - -
2023-03-07 14:39:48.801 +05:30 [INF] Request starting HTTP/2 GET https://localhost:7097/api/CartItem - -
2023-03-07 14:39:48.801 +05:30 [INF] CORS policy execution successful.
2023-03-07 14:39:48.801 +05:30 [INF] CORS policy execution successful.
2023-03-07 14:39:48.801 +05:30 [INF] Executing endpoint 'WebApplication1.Controllers.CartItemController.cart (WebApplication1)'
2023-03-07 14:39:48.801 +05:30 [INF] Executing endpoint 'WebApplication1.Controllers.ProductController.GetAll (WebApplication1)'
2023-03-07 14:39:48.801 +05:30 [INF] Route matched with {action = "cart", controller = "CartItem"}. Executing controller action with signature Microsoft.AspNetCore.Http.IResult cart(WebApplication1.EntityModel.CartItemEntity) on controller WebApplication1.Controllers.CartItemController (WebApplication1).
2023-03-07 14:39:48.801 +05:30 [INF] Route matched with {action = "GetAll", controller = "Product"}. Executing controller action with signature System.Collections.Generic.IEnumerable`1[WebApplication1.EntityModel.ProductEntity] GetAll() on controller WebApplication1.Controllers.ProductController (WebApplication1).
2023-03-07 14:39:48.802 +05:30 [INF] Executing ObjectResult, writing value of type 'Microsoft.AspNetCore.Mvc.ProblemDetails'.
2023-03-07 14:39:48.802 +05:30 [INF] Executed action WebApplication1.Controllers.CartItemController.cart (WebApplication1) in 0.6919ms
2023-03-07 14:39:48.802 +05:30 [INF] Executed endpoint 'WebApplication1.Controllers.CartItemController.cart (WebApplication1)'
2023-03-07 14:39:48.802 +05:30 [INF] Request finished HTTP/2 GET https://localhost:7097/api/CartItem - - - 415 - application/json;+charset=utf-8 1.3365ms
2023-03-07 14:39:48.983 +05:30 [INF] Request starting HTTP/2 GET https://localhost:7097/Api/Product - -
2023-03-07 14:39:48.983 +05:30 [INF] Request starting HTTP/2 GET https://localhost:7097/api/CartItem - -
2023-03-07 14:39:48.983 +05:30 [INF] CORS policy execution successful.
2023-03-07 14:39:48.983 +05:30 [INF] CORS policy execution successful.
2023-03-07 14:39:48.983 +05:30 [INF] Executing endpoint 'WebApplication1.Controllers.CartItemController.cart (WebApplication1)'
2023-03-07 14:39:48.983 +05:30 [INF] Executing endpoint 'WebApplication1.Controllers.ProductController.GetAll (WebApplication1)'
2023-03-07 14:39:48.983 +05:30 [INF] Route matched with {action = "cart", controller = "CartItem"}. Executing controller action with signature Microsoft.AspNetCore.Http.IResult cart(WebApplication1.EntityModel.CartItemEntity) on controller WebApplication1.Controllers.CartItemController (WebApplication1).
2023-03-07 14:39:48.983 +05:30 [INF] Route matched with {action = "GetAll", controller = "Product"}. Executing controller action with signature System.Collections.Generic.IEnumerable`1[WebApplication1.EntityModel.ProductEntity] GetAll() on controller WebApplication1.Controllers.ProductController (WebApplication1).
2023-03-07 14:39:48.984 +05:30 [INF] Executing ObjectResult, writing value of type 'Microsoft.AspNetCore.Mvc.ProblemDetails'.
2023-03-07 14:39:48.985 +05:30 [INF] Executed action WebApplication1.Controllers.CartItemController.cart (WebApplication1) in 1.065ms
2023-03-07 14:39:48.985 +05:30 [INF] Executed endpoint 'WebApplication1.Controllers.CartItemController.cart (WebApplication1)'
2023-03-07 14:39:48.985 +05:30 [INF] Request finished HTTP/2 GET https://localhost:7097/api/CartItem - - - 415 - application/json;+charset=utf-8 1.5110ms
2023-03-07 14:39:49.268 +05:30 [INF] Executed DbCommand (55ms) [Parameters=[], CommandType='"Text"', CommandTimeout='30']
SELECT [p].[Id], [p].[Category], [p].[Image], [p].[Name], [p].[Price], [p].[Quantity]
FROM [Products] AS [p]
2023-03-07 14:39:49.268 +05:30 [INF] Executed DbCommand (43ms) [Parameters=[], CommandType='"Text"', CommandTimeout='30']
SELECT [p].[Id], [p].[Category], [p].[Image], [p].[Name], [p].[Price], [p].[Quantity]
FROM [Products] AS [p]
2023-03-07 14:39:49.268 +05:30 [INF] Executed DbCommand (60ms) [Parameters=[], CommandType='"Text"', CommandTimeout='30']
SELECT [p].[Id], [p].[Category], [p].[Image], [p].[Name], [p].[Price], [p].[Quantity]
FROM [Products] AS [p]
2023-03-07 14:39:49.268 +05:30 [INF] Executed DbCommand (60ms) [Parameters=[], CommandType='"Text"', CommandTimeout='30']
SELECT [p].[Id], [p].[Category], [p].[Image], [p].[Name], [p].[Price], [p].[Quantity]
FROM [Products] AS [p]
2023-03-07 14:39:49.268 +05:30 [INF] Executed DbCommand (60ms) [Parameters=[], CommandType='"Text"', CommandTimeout='30']
SELECT [p].[Id], [p].[Category], [p].[Image], [p].[Name], [p].[Price], [p].[Quantity]
FROM [Products] AS [p]
2023-03-07 14:39:49.268 +05:30 [INF] Executed DbCommand (58ms) [Parameters=[], CommandType='"Text"', CommandTimeout='30']
SELECT [p].[Id], [p].[Category], [p].[Image], [p].[Name], [p].[Price], [p].[Quantity]
FROM [Products] AS [p]
2023-03-07 14:39:49.268 +05:30 [INF] Executed DbCommand (52ms) [Parameters=[], CommandType='"Text"', CommandTimeout='30']
SELECT [p].[Id], [p].[Category], [p].[Image], [p].[Name], [p].[Price], [p].[Quantity]
FROM [Products] AS [p]
2023-03-07 14:39:49.478 +05:30 [INF] Executing ObjectResult, writing value of type 'System.Collections.Generic.List`1[[WebApplication1.EntityModel.ProductEntity, WebApplication1, Version=1.0.0.0, Culture=neutral, PublicKeyToken=null]]'.
2023-03-07 14:39:49.478 +05:30 [INF] Executing ObjectResult, writing value of type 'System.Collections.Generic.List`1[[WebApplication1.EntityModel.ProductEntity, WebApplication1, Version=1.0.0.0, Culture=neutral, PublicKeyToken=null]]'.
2023-03-07 14:39:49.478 +05:30 [INF] Executing ObjectResult, writing value of type 'System.Collections.Generic.List`1[[WebApplication1.EntityModel.ProductEntity, WebApplication1, Version=1.0.0.0, Culture=neutral, PublicKeyToken=null]]'.
2023-03-07 14:39:49.478 +05:30 [INF] Executing ObjectResult, writing value of type 'System.Collections.Generic.List`1[[WebApplication1.EntityModel.ProductEntity, WebApplication1, Version=1.0.0.0, Culture=neutral, PublicKeyToken=null]]'.
2023-03-07 14:39:49.478 +05:30 [INF] Executing ObjectResult, writing value of type 'System.Collections.Generic.List`1[[WebApplication1.EntityModel.ProductEntity, WebApplication1, Version=1.0.0.0, Culture=neutral, PublicKeyToken=null]]'.
2023-03-07 14:39:49.478 +05:30 [INF] Executing ObjectResult, writing value of type 'System.Collections.Generic.List`1[[WebApplication1.EntityModel.ProductEntity, WebApplication1, Version=1.0.0.0, Culture=neutral, PublicKeyToken=null]]'.
2023-03-07 14:39:49.478 +05:30 [INF] Executing ObjectResult, writing value of type 'System.Collections.Generic.List`1[[WebApplication1.EntityModel.ProductEntity, WebApplication1, Version=1.0.0.0, Culture=neutral, PublicKeyToken=null]]'.
2023-03-07 14:39:49.496 +05:30 [INF] Executed action WebApplication1.Controllers.ProductController.GetAll (WebApplication1) in 1586.7746ms
2023-03-07 14:39:49.496 +05:30 [INF] Executed action WebApplication1.Controllers.ProductController.GetAll (WebApplication1) in 1113.5611ms
2023-03-07 14:39:49.496 +05:30 [INF] Executed endpoint 'WebApplication1.Controllers.ProductController.GetAll (WebApplication1)'
2023-03-07 14:39:49.496 +05:30 [INF] Executed endpoint 'WebApplication1.Controllers.ProductController.GetAll (WebApplication1)'
2023-03-07 14:39:49.496 +05:30 [INF] Executed action WebApplication1.Controllers.ProductController.GetAll (WebApplication1) in 1451.3566ms
2023-03-07 14:39:49.496 +05:30 [INF] Executed endpoint 'WebApplication1.Controllers.ProductController.GetAll (WebApplication1)'
2023-03-07 14:39:49.496 +05:30 [INF] Executed action WebApplication1.Controllers.ProductController.GetAll (WebApplication1) in 3206.0506ms
2023-03-07 14:39:49.497 +05:30 [INF] Executed action WebApplication1.Controllers.ProductController.GetAll (WebApplication1) in 2165.178ms
2023-03-07 14:39:49.497 +05:30 [INF] Executed endpoint 'WebApplication1.Controllers.ProductController.GetAll (WebApplication1)'
2023-03-07 14:39:49.497 +05:30 [INF] Executed endpoint 'WebApplication1.Controllers.ProductController.GetAll (WebApplication1)'
2023-03-07 14:39:49.497 +05:30 [INF] Executed action WebApplication1.Controllers.ProductController.GetAll (WebApplication1) in 695.2709ms
2023-03-07 14:39:49.497 +05:30 [INF] Executed endpoint 'WebApplication1.Controllers.ProductController.GetAll (WebApplication1)'
2023-03-07 14:39:49.497 +05:30 [INF] Executed action WebApplication1.Controllers.ProductController.GetAll (WebApplication1) in 513.1848ms
2023-03-07 14:39:49.497 +05:30 [INF] Executed endpoint 'WebApplication1.Controllers.ProductController.GetAll (WebApplication1)'
2023-03-07 14:39:49.517 +05:30 [INF] Request finished HTTP/2 GET https://localhost:7097/Api/Product - - - 0 - application/json;+charset=utf-8 1134.2272ms
2023-03-07 14:39:49.517 +05:30 [INF] Request finished HTTP/2 GET https://localhost:7097/Api/Product - - - 0 - application/json;+charset=utf-8 715.7103ms
2023-03-07 14:39:49.517 +05:30 [INF] Request finished HTTP/2 GET https://localhost:7097/Api/Product - - - 0 - application/json;+charset=utf-8 1609.2662ms
2023-03-07 14:39:49.517 +05:30 [INF] Request finished HTTP/2 GET https://localhost:7097/Api/Product - - - 0 - application/json;+charset=utf-8 3424.8569ms
2023-03-07 14:39:49.517 +05:30 [INF] Request finished HTTP/2 GET https://localhost:7097/Api/Product - - - 0 - application/json;+charset=utf-8 1471.9082ms
2023-03-07 14:39:49.517 +05:30 [INF] Request finished HTTP/2 GET https://localhost:7097/Api/Product - - - 0 - application/json;+charset=utf-8 2188.9183ms
2023-03-07 14:39:49.517 +05:30 [INF] Request finished HTTP/2 GET https://localhost:7097/Api/Product - - - 200 - application/json;+charset=utf-8 533.9878ms
2023-03-07 14:39:52.622 +05:30 [INF] Request starting HTTP/2 OPTIONS https://localhost:7097/api/CartItem - -
2023-03-07 14:39:52.622 +05:30 [INF] CORS policy execution successful.
2023-03-07 14:39:52.623 +05:30 [INF] Request finished HTTP/2 OPTIONS https://localhost:7097/api/CartItem - - - 204 - - 1.2533ms
2023-03-07 14:39:52.624 +05:30 [INF] Request starting HTTP/2 POST https://localhost:7097/api/CartItem application/json 89
2023-03-07 14:39:52.625 +05:30 [INF] CORS policy execution successful.
2023-03-07 14:39:52.625 +05:30 [INF] Executing endpoint 'WebApplication1.Controllers.CartItemController.cart (WebApplication1)'
2023-03-07 14:39:52.625 +05:30 [INF] Route matched with {action = "cart", controller = "CartItem"}. Executing controller action with signature Microsoft.AspNetCore.Http.IResult cart(WebApplication1.EntityModel.CartItemEntity) on controller WebApplication1.Controllers.CartItemController (WebApplication1).
2023-03-07 14:39:59.084 +05:30 [INF] Executed DbCommand (155ms) [Parameters=[@__id_0='?' (DbType = Int32)], CommandType='"Text"', CommandTimeout='30']
SELECT TOP(1) [c].[Id], [c].[Image], [c].[Price], [c].[ProductId], [c].[ProductName], [c].[Quantity], [c].[Total]
FROM [CartItem] AS [c]
WHERE [c].[ProductId] = @__id_0
